{
  "type": "service_account",
  "project_id": "axiom-463e2",
  "private_key_id": "a78803c1141115a0ae5555c0a273b1f1c82d48ff",
  "private_key": "-----BEGIN PRIVATE KEY-----\nMIIEvgIBADANBgkqhkiG9w0BAQEFAASCBKgwggSkAgEAAoIBAQDBhkVYdMOqejvJ\nuGyqblWMtIheYsZFGlIIvO3ZDxGdf9sGrCz2d2F+i2eVljvHZpP81GfQRRIa4Jmi\n8KWnjZI0tO4YJBNleMgP/7HGUHvMJYEA111Xjk8ZQu9y5zravTna5NsWzK6eRh+d\nB2IKPh42LyUkAa1EGB71Q5Ksw4jWuxgiYhD5llueh6kUp07UuqSlJ3K+GtuFVmxv\nYDqPKnFRxxVoepRMNUPSgmC/MsgXadcm5iQh0irg5QyN5FDZHoY+mgQV+NqIUxG1\nAv8iLVnV2IJS6DkDP9HYPbOECnj8Srn0tiInY0teLDwkce6Z1MIe/vrQGiaP4PpH\nwUd8dtWZAgMBAAECggEAFSHo66ZggXq0kawKbbf7rpA+PfRSS1R69cpPvL6pAUZn\nb/yYMlfJ9Swa5RpRL86TRW4aYgNQ3U9+Z20Y4cmTWB8Tyt4RoiiEzD5zNsEuK5ZC\n1okt/7QiDhOhmy4F3sIAEdeg1wYF4XGt3RNj0NOEsA0I5LwsI/3wT38QAr6dcDkv\n8jC01ur3KrfA/iwRh/zi5ZZG4gDWaeKiKjdweZYLWJXGf7EMpyP2g86/C4NkOlT8\nbFOro68tYqBA2EfZ4VqGn452WskuxtGJj1HFYusDWFRLg32ugNvHwBBa3ysVEnQo\nI3c4UschzSPkYhWCyJm3kEBTz3S8d+CBe7obnb5Z6wKBgQD/KCY1PR2qODuHu0yq\nZJbM0ytDsUzCNGhuT+qUiXZNfwWu8wlYTq/JqgcANhTAlacwTossfahWIzJdoMXY\nRh4dA2olvUu43vbbyJujXUsKX8ubr9YhSWML80nPtjnfzPHbDkYmxPe6tNnxa3/s\n2JJmwFT6NLSV80nFKeeFWvv4NwKBgQDCKfvKSwdPxarhxHzwqlyCbyjdGt+Tijv0\nipwhypcdF/ORJ0eMSnriGdeMT5Sxd87k+Ccr0cdih3H9xAvPcDwh+JhOn/M0ulKX\nqCO5iarolmILCtZaq9j+xuIBnmtEOdaD8j9Eu/55/YVkEUmLfWHm06jEG2LZVNn6\n9h93DSUYrwKBgC0Ur+N6H9KiSspJals0mHwp1xwHqFMrpUPQNNb3joJUrfFiGUWT\n6XUM6F2+MF5yUm6zgd1jeil14IEwVaRHhyyDHO78CfPo2N6uC+mKIyb7E+M25vNM\nnwZOfr0HKiSDdjvIwtY4uLgxGcyQvLJg9UTYOGtYgot3x5HhPHmQQLJzAoGBALb8\nYjPwKd/gZn+HckhOBglXQae/X93odUCuMR8Xkvr0S7QM1L0+pDjaKe4uQfBO/UmF\nJUWC2uncxG1oicjh+Yn6g2/2Bns27gfHioOdXtj8gUHu4L1rH4JdZTopVuZhq+2G\nLGJW2imV6FS6hhlT/SRRbcgEF1DDSvvdYSIN3Vw5AoGBAKDs9rKZ5OLFQlnY8e78\nZyMi3qOx1BojF7mew2LASRWT8kGBhG7eG31QNZF14YyO4BcVqNQ4Bc7/YgKwU0Nx\nFul4qCPwu7np12MDqCmFxkw5Bunk5+FJ3/0hmtX5kHyKGe+mND+ODx7i2wkA4E+l\nh10nCCJ8HtcniDF+t3DwgyyJ\n-----END PRIVATE KEY-----\n",
  "client_email": "firebase-adminsdk-hg9sc@axiom-463e2.iam.gserviceaccount.com",
  "client_id": "116623912388143540982",
  "auth_uri": "https://accounts.google.com/o/oauth2/auth",
  "token_uri": "https://accounts.google.com/o/oauth2/token",
  "auth_provider_x509_cert_url": "https://www.googleapis.com/oauth2/v1/certs",
  "client_x509_cert_url": "https://www.googleapis.com/robot/v1/metadata/x509/firebase-adminsdk-hg9sc%40axiom-463e2.iam.gserviceaccount.com"
}
